^G:\VR TEST STUFF\ARUCO-VR-BODY-TRACKING\OPENCV TEST\OPENCV TEST\QUATERNION.CPP|G:\VR TEST STUFF\ARUCO-VR-BODY-TRACKING\OPENCV TEST\OPENCV TEST\SOURCE.CPP
G:\VR TEST STUFF\ARUCO-VR-BODY-TRACKING\OPENCV TEST\OPENCV TEST\X64\RELEASE\VC142.PDB
G:\VR TEST STUFF\ARUCO-VR-BODY-TRACKING\OPENCV TEST\OPENCV TEST\X64\RELEASE\QUATERNION.OBJ
G:\VR TEST STUFF\ARUCO-VR-BODY-TRACKING\OPENCV TEST\OPENCV TEST\X64\RELEASE\SOURCE.OBJ
^G:\VR TEST STUFF\ARUCO-VR-BODY-TRACKING\OPENCV TEST\OPENCV TEST\QUATERNION.CPP
G:\VR TEST STUFF\ARUCO-VR-BODY-TRACKING\OPENCV TEST\OPENCV TEST\X64\RELEASE\VC142.PDB
^G:\VR TEST STUFF\ARUCO-VR-BODY-TRACKING\OPENCV TEST\OPENCV TEST\SOURCE.CPP
G:\VR TEST STUFF\ARUCO-VR-BODY-TRACKING\OPENCV TEST\OPENCV TEST\X64\RELEASE\VC142.PDB
G:\VR TEST STUFF\ARUCO-VR-BODY-TRACKING\OPENCV TEST\OPENCV TEST\X64\RELEASE\SOURCE.OBJ
