^G:\VR TEST STUFF\ARUCO-VR-BODY-TRACKING\OPENCV TEST\OPENCV TEST\X64\DEBUG\QUATERNION.OBJ|G:\VR TEST STUFF\ARUCO-VR-BODY-TRACKING\OPENCV TEST\OPENCV TEST\X64\DEBUG\SOURCE.OBJ
G:\VR TEST STUFF\ARUCO-VR-BODY-TRACKING\OPENCV TEST\X64\DEBUG\OPENCV TEST.EXE
G:\VR TEST STUFF\ARUCO-VR-BODY-TRACKING\OPENCV TEST\X64\DEBUG\OPENCV TEST.ILK
G:\VR TEST STUFF\ARUCO-VR-BODY-TRACKING\OPENCV TEST\X64\DEBUG\OPENCV TEST.PDB
